20

10 8
6
f 5 5 n
h 6 0 w
t 6 5 e
h 8 6 e
f 1 4 e
f 1 2 s
46 4

8 10
12
t 7 0 s
h 4 4 s
t 2 2 s
r 0 0 n
t 5 4 n
r 6 2 w
f 5 8 s
t 7 3 e
h 6 8 w
f 7 7 e
h 6 5 n
f 5 7 w
41 3

9 9
11
f 0 0 n
t 7 4 w
f 7 1 w
h 6 6 s
f 2 2 e
r 6 4 s
r 4 5 s
t 4 3 e
h 4 1 n
r 4 2 s
f 4 4 w
39 5

21 32
11
r 4 29 n
t 15 28 n
f 2 22 s
t 16 30 n
f 19 30 s
t 1 27 n
h 1 1 s
h 16 24 n
r 14 16 n
h 5 13 n
f 1 27 w
13 1

10 10
12
r 3 4 w
r 5 0 n
r 4 5 n
f 2 4 e
r 2 7 w
r 6 8 e
h 0 4 n
h 4 2 n
t 5 2 e
f 5 3 w
t 9 1 w
t 6 6 e
4 1

10 9
12
r 3 3 s
h 6 4 s
t 3 5 e
h 4 5 w
f 6 2 s
h 1 0 e
t 8 5 s
h 7 1 s
h 1 7 e
h 2 0 e
t 9 6 n
f 1 3 s
5 2

8 10
11
r 3 2 w
h 2 7 s
f 3 6 n
r 4 3 s
f 3 9 e
r 4 4 n
r 5 6 s
h 2 0 n
t 3 1 s
h 1 0 w
r 2 6 s
36 2

8 9
2
r 4 8 w
h 4 0 n
19 1

32 32
14
r 5 16 n
t 23 25 w
h 28 11 s
t 10 9 w
r 29 6 n
h 7 17 w
t 21 8 w
t 4 12 w
f 16 26 e
f 21 22 e
t 18 14 n
t 23 28 w
h 30 21 e
h 28 28 e
5 2

10 10
17
t 2 3 s
f 8 3 e
h 3 8 e
r 7 4 w
r 8 2 s
r 6 1 s
f 2 2 n
r 8 1 s
f 3 5 w
r 6 4 w
h 3 6 e
h 5 5 w
h 8 9 w
f 4 2 s
r 7 3 n
f 9 9 n
r 7 0 n
16 2

8 8
16
f 6 2 w
h 5 1 e
h 3 2 w
t 3 6 e
f 6 7 w
r 4 2 s
t 2 1 n
h 4 6 n
t 0 7 n
t 3 1 w
h 2 0 s
h 6 4 n
h 4 7 w
t 0 4 s
h 1 5 s
h 5 0 e
41 3

8 9
14
h 3 0 w
t 6 2 e
h 0 6 w
t 7 1 s
f 5 2 n
h 5 4 e
r 2 1 n
h 2 2 e
f 7 3 e
t 4 5 e
t 7 2 n
t 2 0 w
f 5 0 n
f 3 8 s
12 2

9 8
20
h 3 1 w
h 0 7 e
t 7 2 n
h 2 2 e
f 6 3 s
f 8 1 e
r 4 2 n
f 6 7 w
h 6 2 e
f 6 5 n
f 4 0 w
f 5 1 e
t 1 3 s
t 6 4 w
f 3 0 e
f 3 3 s
f 6 0 n
t 1 5 e
h 5 6 w
t 6 1 s
4 4

8 8
15
h 0 1 s
h 2 6 e
r 7 5 e
f 2 7 s
h 0 2 e
h 0 3 s
h 3 3 s
f 2 0 s
h 5 5 n
f 7 3 e
f 7 6 e
r 7 1 e
t 2 2 n
r 5 4 n
h 1 2 e
11 3

25 5
9
h 5 0 e
t 21 4 w
r 12 4 e
h 9 0 n
h 10 1 e
r 6 1 e
t 7 3 e
r 14 3 w
h 4 0 s
7 2

10 12
7
f 5 8 w
t 2 0 s
t 6 10 n
f 2 0 w
t 1 3 w
t 5 5 n
f 0 9 n
4 3

35 30
9
f 19 9 s
f 3 7 s
r 10 8 w
h 21 4 n
h 11 27 e
t 21 1 n
r 19 27 w
f 27 27 e
r 6 26 s
101 197

37 38
10
t 26 0 s
r 9 16 e
h 12 24 e
t 6 36 n
h 25 32 n
r 0 6 e
f 23 20 e
f 33 3 e
h 20 17 n
t 3 13 s
168 153

16 1
4
t 14 0 s
h 7 0 e
f 6 0 n
h 3 0 e
4 6

20 2
6
f 4 1 w
f 17 1 w
f 17 0 e
f 5 1 n
r 15 1 s
r 19 0 e
7 4
