*** Darwin 5x7 ***
Turn = 0.
  0123456
0 ...h...
1 ..f....
2 .......
3 .......
4 .......

Turn = 39.
  0123456
0 ...h...
1 ..f....
2 .......
3 .......
4 .......

Turn = 78.
  0123456
0 ...h...
1 ..f....
2 .......
3 .......
4 .......

*** Darwin 6x6 ***
Turn = 0.
  012345
0 ...t..
1 .....r
2 ......
3 ......
4 .f...h
5 .t....

*** Darwin 5x7 ***
Turn = 0.
  0123456
0 .......
1 .......
2 f....t.
3 .......
4 .......

Turn = 65.
  0123456
0 .......
1 .......
2 f....t.
3 .......
4 .......

*** Darwin 5x7 ***
Turn = 0.
  0123456
0 ....h..
1 .......
2 .......
3 ......f
4 ...r...

*** Darwin 6x6 ***
Turn = 0.
  012345
0 f.t...
1 h.....
2 ......
3 .r....
4 ......
5 ......

Turn = 5.
  012345
0 f.t...
1 ......
2 ......
3 ......
4 ......
5 rr....

*** Darwin 8x8 ***
Turn = 0.
  01234567
0 h.......
1 .tf....h
2 ........
3 ........
4 ........
5 .f......
6 ........
7 ........

*** Darwin 10x9 ***
Turn = 0.
  012345678
0 .........
1 .........
2 .......f.
3 .........
4 .........
5 .........
6 .........
7 .........
8 ....h....
9 .........

*** Darwin 10x7 ***
Turn = 0.
  0123456
0 .......
1 .......
2 .......
3 ......h
4 ....t..
5 .......
6 ...t...
7 ....t..
8 .......
9 .......

Turn = 21.
  0123456
0 ......h
1 .......
2 .......
3 .......
4 ....t..
5 .......
6 ...t...
7 ....t..
8 .......
9 .......

Turn = 42.
  0123456
0 ......h
1 .......
2 .......
3 .......
4 ....t..
5 .......
6 ...t...
7 ....t..
8 .......
9 .......

*** Darwin 6x5 ***
Turn = 0.
  01234
0 ....h
1 .....
2 ....r
3 f....
4 .....
5 ..hh.

Turn = 20.
  01234
0 .....
1 .....
2 ....r
3 ....r
4 .....
5 h..hr

Turn = 40.
  01234
0 ....r
1 .....
2 .....
3 ...r.
4 ..rr.
5 ..r..

*** Darwin 7x6 ***
Turn = 0.
  012345
0 .....h
1 ......
2 ......
3 ......
4 ......
5 ......
6 ......

Turn = 16.
  012345
0 .....h
1 ......
2 ......
3 ......
4 ......
5 ......
6 ......

Turn = 32.
  012345
0 .....h
1 ......
2 ......
3 ......
4 ......
5 ......
6 ......

Turn = 48.
  012345
0 .....h
1 ......
2 ......
3 ......
4 ......
5 ......
6 ......

*** Darwin 8x10 ***
Turn = 0.
  0123456789
0 h.........
1 ..........
2 ..f.......
3 .......t..
4 ..........
5 ..........
6 ..........
7 ..........

Turn = 59.
  0123456789
0 ..........
1 ..........
2 ..f.......
3 .......t..
4 ..........
5 ..........
6 ..........
7 h.........

*** Darwin 5x10 ***
Turn = 0.
  0123456789
0 ..........
1 ..........
2 ..tf..f...
3 ......t...
4 ..........

Turn = 33.
  0123456789
0 ..........
1 ..........
2 ..tt..t...
3 ......t...
4 ..........

Turn = 66.
  0123456789
0 ..........
1 ..........
2 ..tt..t...
3 ......t...
4 ..........

*** Darwin 10x10 ***
Turn = 0.
  0123456789
0 ..........
1 ...t......
2 ..........
3 ..........
4 ..........
5 ..........
6 ..........
7 ..........
8 ..........
9 ..........

*** Darwin 6x5 ***
Turn = 0.
  01234
0 ....f
1 tf...
2 .....
3 .h...
4 ..t..
5 .....

Turn = 36.
  01234
0 ....f
1 tt...
2 .....
3 .....
4 ..t..
5 .h...

*** Darwin 9x8 ***
Turn = 0.
  01234567
0 ..f....h
1 ....t...
2 ........
3 ........
4 ........
5 ........
6 .......f
7 ......r.
8 ........

Turn = 6.
  01234567
0 ..f.....
1 ....t...
2 ........
3 ........
4 ........
5 .......h
6 .......f
7 ........
8 ..r.....

Turn = 12.
  01234567
0 ..f.....
1 ....t...
2 ........
3 ........
4 ........
5 .......h
6 .......f
7 r.......
8 ........

*** Darwin 8x5 ***
Turn = 0.
  01234
0 .....
1 .....
2 .....
3 .....
4 .....
5 .....
6 ....r
7 .....

*** Darwin 5x5 ***
Turn = 0.
  01234
0 .....
1 .....
2 t..rr
3 .....
4 .....

*** Darwin 5x10 ***
Turn = 0.
  0123456789
0 ..r.......
1 ..........
2 ..........
3 ..t.......
4 .........r

Turn = 24.
  0123456789
0 ....r.....
1 ..........
2 ..........
3 ..t.......
4 .......r..

Turn = 48.
  0123456789
0 ......r...
1 ..........
2 ..........
3 ..t.......
4 ...r......

Turn = 72.
  0123456789
0 .r........
1 r.........
2 ..r.......
3 ..........
4 ..........

Turn = 96.
  0123456789
0 .......r..
1 r.........
2 ..........
3 ..r.......
4 ..........

*** Darwin 10x8 ***
Turn = 0.
  01234567
0 ........
1 ........
2 ......h.
3 ........
4 ..f.....
5 ........
6 ........
7 ........
8 ........
9 ........

*** Darwin 7x9 ***
Turn = 0.
  012345678
0 .........
1 .........
2 .........
3 .........
4 .........
5 ...h.....
6 .........

Turn = 47.
  012345678
0 .........
1 .........
2 .........
3 .........
4 .........
5 ........h
6 .........

*** Darwin 8x7 ***
Turn = 0.
  0123456
0 .......
1 r...h..
2 .....h.
3 .......
4 .f..f..
5 .......
6 .......
7 .......

*** Darwin 7x5 ***
Turn = 0.
  01234
0 ..r..
1 .....
2 ....t
3 .h...
4 r....
5 .....
6 ...t.

Turn = 4.
  01234
0 .h...
1 r....
2 ....t
3 .....
4 ..r..
5 .....
6 ...t.

Turn = 8.
  01234
0 rh...
1 .....
2 ....t
3 .....
4 .....
5 .....
6 .r.t.

Turn = 12.
  01234
0 .r..r
1 .....
2 ....t
3 .....
4 .....
5 .....
6 r..t.

Turn = 16.
  01234
0 ....r
1 ....t
2 ....t
3 .....
4 .....
5 ...r.
6 ..r..

Turn = 20.
  01234
0 ....r
1 ...rt
2 ....t
3 .....
4 .....
5 ....r
6 .....

Turn = 24.
  01234
0 ...rt
1 ....r
2 ....r
3 ....r
4 .....
5 .....
6 .....

*** Darwin 5x7 ***
Turn = 0.
  0123456
0 ....h..
1 ....t..
2 .......
3 ......r
4 .....h.

*** Darwin 6x9 ***
Turn = 0.
  012345678
0 .........
1 .........
2 .........
3 .........
4 .r.......
5 .........

*** Darwin 6x8 ***
Turn = 0.
  01234567
0 .....t..
1 ........
2 t.......
3 .r......
4 t.......
5 .....f..

Turn = 13.
  01234567
0 .....t..
1 ........
2 t.......
3 ........
4 tt......
5 .....f..

Turn = 26.
  01234567
0 .....t..
1 ........
2 t.......
3 ........
4 tt......
5 .....f..

Turn = 39.
  01234567
0 .....t..
1 ........
2 t.......
3 ........
4 tt......
5 .....f..

*** Darwin 5x10 ***
Turn = 0.
  0123456789
0 ..........
1 ..........
2 .h.....f..
3 .....r....
4 ..........

*** Darwin 9x9 ***
Turn = 0.
  012345678
0 .........
1 .........
2 .......f.
3 .........
4 ...hh....
5 .........
6 .........
7 .........
8 ......hh.

*** Darwin 9x9 ***
Turn = 0.
  012345678
0 .........
1 .........
2 .........
3 .........
4 .........
5 .........
6 .........
7 ..r......
8 .........

Turn = 92.
  012345678
0 .........
1 .........
2 .........
3 .........
4 .........
5 .........
6 .........
7 .........
8 ........r

*** Darwin 10x10 ***
Turn = 0.
  0123456789
0 ..........
1 .........f
2 .....t....
3 ..........
4 ..........
5 ..........
6 .......t.t
7 ..........
8 ..........
9 ..........

*** Darwin 8x8 ***
Turn = 0.
  01234567
0 ........
1 ........
2 ........
3 ........
4 ........
5 t.......
6 .....r..
7 ........

Turn = 36.
  01234567
0 ....rr..
1 ........
2 ........
3 ........
4 ........
5 ........
6 ........
7 ........
